{
	"info": {
		"_postman_id": "4ea5b289-966a-4ff7-84bf-4951ffc7f47e",
		"name": "EndpointUser",
		"schema": "https://schema.getpostman.com/json/collection/v2.1.0/collection.json"
	},
	"item": [
		{
			"name": "creates [NO uuid]",
			"item": [
				{
					"name": "RegisterInquilino",
					"request": {
						"method": "POST",
						"header": [],
						"body": {
							"mode": "raw",
							"raw": "{   \r\n    \"username\": \"noSeTio\",\r\n    \"password\": \"12341234\",\r\n    \"confirmPassword\": \"12341234\",\r\n    \"email\": \"lucario@gmail.com\",\r\n    \"tipo\": \"INQUILINO\"\r\n}",
							"options": {
								"raw": {
									"language": "json"
								}
							}
						},
						"url": {
							"raw": "{{route}}:{{port}}/api/users",
							"host": [
								"{{route}}"
							],
							"port": "{{port}}",
							"path": [
								"api",
								"users"
							]
						}
					},
					"response": []
				},
				{
					"name": "RegisterCasero",
					"request": {
						"method": "POST",
						"header": [],
						"body": {
							"mode": "raw",
							"raw": "{   \r\n    \"username\": \"pimpollo\",\r\n    \"password\": \"constraseña\",\r\n    \"confirmPassword\": \"constraseña\",\r\n    \"email\": \"noesunmail@gmail.com\",\r\n    \"tipo\": \"CASERO\"\r\n}",
							"options": {
								"raw": {
									"language": "json"
								}
							}
						},
						"url": {
							"raw": "{{route}}:{{port}}/api/users",
							"host": [
								"{{route}}"
							],
							"port": "{{port}}",
							"path": [
								"api",
								"users"
							]
						}
					},
					"response": []
				},
				{
					"name": "RegisterMultiuser",
					"request": {
						"method": "POST",
						"header": [],
						"body": {
							"mode": "raw",
							"raw": "{\r\n    \"username\": \"usuarioCasero\",\r\n    \"password\": \"constraseña\",\r\n    \"confirmPassword\": \"constraseña\",\r\n    \"email\": \"email23@gmail.com\",\r\n    \"tipo\": \"INQUILINO/CASERO\"\r\n}",
							"options": {
								"raw": {
									"language": "json"
								}
							}
						},
						"url": {
							"raw": "{{route}}:{{port}}/api/users",
							"host": [
								"{{route}}"
							],
							"port": "{{port}}",
							"path": [
								"api",
								"users"
							]
						}
					},
					"response": [
						{
							"name": "RegisterMultiuser",
							"originalRequest": {
								"method": "POST",
								"header": [],
								"body": {
									"mode": "raw",
									"raw": "{\r\n    \"username\": \"caseroUsuario\",\r\n    \"password\": \"constraseña\",\r\n    \"email\": \"email23@gmail.com\",\r\n    \"tipo\": \"INQUILINO_CASERO\"\r\n}",
									"options": {
										"raw": {
											"language": "json"
										}
									}
								},
								"url": {
									"raw": "localhost:3000/api/users",
									"host": [
										"localhost"
									],
									"port": "3000",
									"path": [
										"api",
										"users"
									]
								}
							},
							"status": "Created",
							"code": 201,
							"_postman_previewlanguage": "json",
							"header": [
								{
									"key": "X-Powered-By",
									"value": "Express"
								},
								{
									"key": "Content-Type",
									"value": "application/json; charset=utf-8"
								},
								{
									"key": "Content-Length",
									"value": "164"
								},
								{
									"key": "ETag",
									"value": "W/\"a4-zUKF5X9Auz1ZQJm5wHD2j0kQQs4\""
								},
								{
									"key": "Date",
									"value": "Tue, 06 Jul 2021 14:13:55 GMT"
								},
								{
									"key": "Connection",
									"value": "keep-alive"
								},
								{
									"key": "Keep-Alive",
									"value": "timeout=5"
								}
							],
							"cookie": [],
							"body": "{\n    \"Info\": \"User created\",\n    \"Data\": {\n        \"username\": \"caseroUsuario\",\n        \"email\": \"email23@gmail.com\",\n        \"tipo\": \"INQUILINO_CASERO\",\n        \"user_uuid\": \"5c908ab7-61ad-40bb-a1ec-5a5a895526f1\"\n    }\n}"
						}
					]
				},
				{
					"name": "RegisterAdmin NO TOKEN",
					"request": {
						"method": "POST",
						"header": [],
						"body": {
							"mode": "raw",
							"raw": "{\r\n        \"username\": \"admin\",\r\n        \"password\": \"admin1234\",\r\n        \"confirmPassword\": \"admin1234\",\r\n        \"email\": \"emaili500@gmail.com\",\r\n        \"tipo\": \"ADMIN\"\r\n}",
							"options": {
								"raw": {
									"language": "json"
								}
							}
						},
						"url": {
							"raw": "{{route}}:{{port}}/api/users",
							"host": [
								"{{route}}"
							],
							"port": "{{port}}",
							"path": [
								"api",
								"users"
							]
						}
					},
					"response": []
				},
				{
					"name": "RegisterAdmin SI TOKEN",
					"request": {
						"auth": {
							"type": "bearer",
							"bearer": [
								{
									"key": "token",
									"value": "{{tokenAdmin}}",
									"type": "string"
								}
							]
						},
						"method": "POST",
						"header": [],
						"body": {
							"mode": "raw",
							"raw": "{\r\n        \"username\": \"admin999\",\r\n        \"password\": \"admin1234\",\r\n        \"confirmPassword\":\"asdmin1234\",\r\n        \"email\": \"emaili999@gmail.com\",\r\n        \"tipo\": \"ADMIN\"\r\n}",
							"options": {
								"raw": {
									"language": "json"
								}
							}
						},
						"url": {
							"raw": "{{route}}:{{port}}/api/users",
							"host": [
								"{{route}}"
							],
							"port": "{{port}}",
							"path": [
								"api",
								"users"
							]
						}
					},
					"response": []
				},
				{
					"name": "RegisterAdmin WRONG TOKEN",
					"request": {
						"auth": {
							"type": "bearer",
							"bearer": [
								{
									"key": "token",
									"value": "eyJhbGciOiJIUzI1NiIsInR5cCI6IkpXVCJ9.eyJ1c2VyX3V1aWQiOiJmZDBmMjgwZC0xMmY0LTQ1NjEtOTZiOC04YTk4NTA2MTI1MTciLCJ1c2VybmFtZSI6InBlcGUiLCJ0aXBvIjoiSU5RVUlMSU5PIiwiaWF0IjoxNjI1NTkyNzAxLCJleHAiOjE2MjU2NzkxMDF9.SyuAS3-0pkcSYgYb6p7_KD79ahnXhGGJ-KImXw9r2R4",
									"type": "string"
								}
							]
						},
						"method": "POST",
						"header": [],
						"body": {
							"mode": "raw",
							"raw": "{\r\n        \"username\": \"admin\",\r\n        \"password\": \"admin1234\",\r\n        \"email\": \"emaili500@gmail.com\",\r\n        \"tipo\": \"ADMIN\"\r\n}",
							"options": {
								"raw": {
									"language": "json"
								}
							}
						},
						"url": {
							"raw": "{{route}}:{{port}}/api/users",
							"host": [
								"{{route}}"
							],
							"port": "{{port}}",
							"path": [
								"api",
								"users"
							]
						}
					},
					"response": []
				}
			]
		},
		{
			"name": "login",
			"item": [
				{
					"name": "logInquilino",
					"request": {
						"method": "POST",
						"header": [],
						"body": {
							"mode": "raw",
							"raw": "{\r\n    \"username\": \"pepe\",\r\n    \"password\": \"constraseña\"\r\n}",
							"options": {
								"raw": {
									"language": "json"
								}
							}
						},
						"url": {
							"raw": "{{route}}:{{port}}/login",
							"host": [
								"{{route}}"
							],
							"port": "{{port}}",
							"path": [
								"login"
							]
						}
					},
					"response": []
				},
				{
					"name": "logInquilino",
					"request": {
						"method": "POST",
						"header": [],
						"body": {
							"mode": "raw",
							"raw": "{\r\n    \"username\": \"NoSeTio\",\r\n    \"password\": \"12341234\"\r\n}",
							"options": {
								"raw": {
									"language": "json"
								}
							}
						},
						"url": {
							"raw": "{{route}}:{{port}}/login",
							"host": [
								"{{route}}"
							],
							"port": "{{port}}",
							"path": [
								"login"
							]
						}
					},
					"response": []
				},
				{
					"name": "logCasero",
					"request": {
						"method": "POST",
						"header": [],
						"body": {
							"mode": "raw",
							"raw": "{\r\n    \"username\": \"pimpollo\",\r\n    \"password\": \"constraseña\"\r\n}",
							"options": {
								"raw": {
									"language": "json"
								}
							}
						},
						"url": {
							"raw": "{{route}}:{{port}}/login",
							"host": [
								"{{route}}"
							],
							"port": "{{port}}",
							"path": [
								"login"
							]
						}
					},
					"response": []
				},
				{
					"name": "logCasero Copy",
					"request": {
						"method": "POST",
						"header": [],
						"body": {
							"mode": "raw",
							"raw": "{\r\n    \"username\": \"hermeregildo\",\r\n    \"password\": \"constraseña\"\r\n}",
							"options": {
								"raw": {
									"language": "json"
								}
							}
						},
						"url": {
							"raw": "{{route}}:{{port}}/login",
							"host": [
								"{{route}}"
							],
							"port": "{{port}}",
							"path": [
								"login"
							]
						}
					},
					"response": []
				},
				{
					"name": "logInquilinoCasero",
					"request": {
						"method": "POST",
						"header": [],
						"body": {
							"mode": "raw",
							"raw": "{\r\n    \"username\": \"johnDoe\",\r\n    \"password\": \"constraseña\"\r\n}",
							"options": {
								"raw": {
									"language": "json"
								}
							}
						},
						"url": {
							"raw": "{{route}}:{{port}}/login",
							"host": [
								"{{route}}"
							],
							"port": "{{port}}",
							"path": [
								"login"
							]
						}
					},
					"response": []
				},
				{
					"name": "logAdmin",
					"request": {
						"method": "POST",
						"header": [],
						"body": {
							"mode": "raw",
							"raw": "{\r\n    \"username\": \"admin\",\r\n    \"password\": \"admin1234\"\r\n}",
							"options": {
								"raw": {
									"language": "json"
								}
							}
						},
						"url": {
							"raw": "{{route}}:{{port}}/login",
							"host": [
								"{{route}}"
							],
							"port": "{{port}}",
							"path": [
								"login"
							]
						}
					},
					"response": []
				}
			]
		},
		{
			"name": "creates [SI uuid]",
			"item": [
				{
					"name": "RegisterAdmin0 PRED",
					"request": {
						"method": "POST",
						"header": [],
						"body": {
							"mode": "raw",
							"raw": "{\r\n    \"username\": \"admin\",\r\n    \"password\": \"admin1234\",\r\n    \"confirmPassword\": \"admin1234\",\r\n    \"email\": \"emaili000@gmail.com\",\r\n    \"tipo\": \"ADMIN\",\r\n    \"user_uuid\": \"e59c4635-36b1-4c64-87df-48a33e236678\"\r\n}",
							"options": {
								"raw": {
									"language": "json"
								}
							}
						},
						"url": {
							"raw": "{{route}}:{{port}}/api/users",
							"host": [
								"{{route}}"
							],
							"port": "{{port}}",
							"path": [
								"api",
								"users"
							]
						}
					},
					"response": []
				},
				{
					"name": "RegisterInquilino",
					"request": {
						"method": "POST",
						"header": [],
						"body": {
							"mode": "raw",
							"raw": "{\r\n    \"username\": \"pepe\",\r\n    \"password\": \"constraseña\",\r\n    \"confirmPassword\": \"constraseña\",\r\n    \"email\": \"email2@gmail.com\",\r\n    \"tipo\": \"INQUILINO\",\r\n    \"user_uuid\": \"fd0f280d-12f4-4561-96b8-8a9850612517\"\r\n}",
							"options": {
								"raw": {
									"language": "json"
								}
							}
						},
						"url": {
							"raw": "{{route}}:{{port}}/api/users",
							"host": [
								"{{route}}"
							],
							"port": "{{port}}",
							"path": [
								"api",
								"users"
							]
						}
					},
					"response": []
				},
				{
					"name": "RegisterInquilino1",
					"request": {
						"method": "POST",
						"header": [],
						"body": {
							"mode": "raw",
							"raw": "{\r\n    \"username\": \"silicio\",\r\n    \"password\": \"constraseña\",\r\n    \"confirmPassword\": \"constraseña\",\r\n    \"email\": \"asdf4@asdf.com\",\r\n    \"tipo\": \"INQUILINO\",\r\n    \"user_uuid\": \"b0cd1ee7-3979-4877-89a7-19dd4585335d\"\r\n}",
							"options": {
								"raw": {
									"language": "json"
								}
							}
						},
						"url": {
							"raw": "{{route}}:{{port}}/api/users",
							"host": [
								"{{route}}"
							],
							"port": "{{port}}",
							"path": [
								"api",
								"users"
							]
						}
					},
					"response": []
				},
				{
					"name": "RegisterInquilino2",
					"request": {
						"method": "POST",
						"header": [],
						"body": {
							"mode": "raw",
							"raw": "{\r\n    \"username\": \"cadmio\",\r\n    \"password\": \"constraseña\",\r\n    \"confirmPassword\": \"constraseña\",\r\n    \"email\": \"asdf5@gmail.es\",\r\n    \"tipo\": \"INQUILINO\",\r\n    \"user_uuid\": \"a32f5c15-f7fd-44c8-9476-efcbf26a628c\"\r\n}",
							"options": {
								"raw": {
									"language": "json"
								}
							}
						},
						"url": {
							"raw": "{{route}}:{{port}}/api/users",
							"host": [
								"{{route}}"
							],
							"port": "{{port}}",
							"path": [
								"api",
								"users"
							]
						}
					},
					"response": []
				},
				{
					"name": "RegisterCasero",
					"request": {
						"method": "POST",
						"header": [],
						"body": {
							"mode": "raw",
							"raw": "{   \r\n    \"username\": \"hermeregildo\",\r\n    \"password\": \"constraseña\",\r\n    \"confirmPassword\": \"constraseña\",\r\n    \"email\": \"emaili2@gmail.com\",\r\n    \"tipo\": \"CASERO\",\r\n    \"user_uuid\": \"d0f3bb42-fa87-4e3a-89d3-eb608eebc26b\"\r\n}",
							"options": {
								"raw": {
									"language": "json"
								}
							}
						},
						"url": {
							"raw": "{{route}}:{{port}}/api/users",
							"host": [
								"{{route}}"
							],
							"port": "{{port}}",
							"path": [
								"api",
								"users"
							]
						}
					},
					"response": []
				},
				{
					"name": "RegisterInquilinoCasero",
					"request": {
						"method": "POST",
						"header": [],
						"body": {
							"mode": "raw",
							"raw": "{   \r\n    \"username\": \"johnDoe\",\r\n    \"password\": \"constraseña\",\r\n    \"confirmPassword\": \"constraseña\",\r\n    \"email\": \"emai77@gmail.com\",\r\n    \"tipo\": \"INQUILINO/CASERO\",\r\n    \"user_uuid\": \"3983bb27-f996-48a5-9cff-22c14ce6421f\"\r\n}",
							"options": {
								"raw": {
									"language": "json"
								}
							}
						},
						"url": {
							"raw": "{{route}}:{{port}}/api/users",
							"host": [
								"{{route}}"
							],
							"port": "{{port}}",
							"path": [
								"api",
								"users"
							]
						}
					},
					"response": []
				},
				{
					"name": "RegisterAdmin2 NO TOKEN",
					"request": {
						"auth": {
							"type": "noauth"
						},
						"method": "POST",
						"header": [],
						"body": {
							"mode": "raw",
							"raw": "{\r\n    \"username\": \"admin2\",\r\n    \"password\": \"admin1234\",\r\n    \"confirmPassword\": \"admin1234\",\r\n    \"email\": \"emaili200@gmail.com\",\r\n    \"tipo\": \"ADMIN\",\r\n    \"user_uuid\": \"ef92d421-b7d3-4ce5-adc5-8bc7dfcf2490\"\r\n}",
							"options": {
								"raw": {
									"language": "json"
								}
							}
						},
						"url": {
							"raw": "{{route}}:{{port}}/api/users",
							"host": [
								"{{route}}"
							],
							"port": "{{port}}",
							"path": [
								"api",
								"users"
							]
						}
					},
					"response": []
				},
				{
					"name": "RegisterAdmin2 SI TOKEN",
					"request": {
						"auth": {
							"type": "bearer",
							"bearer": [
								{
									"key": "token",
									"value": "{{tokenAdmin}}",
									"type": "string"
								}
							]
						},
						"method": "POST",
						"header": [],
						"body": {
							"mode": "raw",
							"raw": "{\r\n    \"username\": \"admin2\",\r\n    \"password\": \"admin1234\",\r\n    \"confirmPassword\": \"admin1234\",\r\n    \"email\": \"emaili200@gmail.com\",\r\n    \"tipo\": \"ADMIN\",\r\n    \"user_uuid\": \"ef92d421-b7d3-4ce5-adc5-8bc7dfcf2490\"\r\n}",
							"options": {
								"raw": {
									"language": "json"
								}
							}
						},
						"url": {
							"raw": "{{route}}:{{port}}/api/users",
							"host": [
								"{{route}}"
							],
							"port": "{{port}}",
							"path": [
								"api",
								"users"
							]
						}
					},
					"response": []
				},
				{
					"name": "RegisterAdmin2 WRONG TOKEN",
					"request": {
						"auth": {
							"type": "bearer",
							"bearer": [
								{
									"key": "token",
									"value": "{{tokenInquilino}}",
									"type": "string"
								}
							]
						},
						"method": "POST",
						"header": [],
						"body": {
							"mode": "raw",
							"raw": "{\r\n    \"username\": \"admin2\",\r\n    \"password\": \"admin1234\",\r\n    \"confirmPassword\": \"admin1234\",\r\n    \"email\": \"emaili200@gmail.com\",\r\n    \"tipo\": \"ADMIN\",\r\n    \"user_uuid\": \"ef92d421-b7d3-4ce5-adc5-8bc7dfcf2490\"\r\n}",
							"options": {
								"raw": {
									"language": "json"
								}
							}
						},
						"url": {
							"raw": "{{route}}:{{port}}/api/users",
							"host": [
								"{{route}}"
							],
							"port": "{{port}}",
							"path": [
								"api",
								"users"
							]
						}
					},
					"response": []
				}
			]
		},
		{
			"name": "deleteUser",
			"request": {
				"auth": {
					"type": "bearer",
					"bearer": [
						{
							"key": "token",
							"value": "{{tokenAdmin}}",
							"type": "string"
						}
					]
				},
				"method": "DELETE",
				"header": [],
				"body": {
					"mode": "raw",
					"raw": "{\r\n    \"user_uuid\": \"a32f5c15-f7fd-44c8-9476-efcbf26a628c\"\r\n}",
					"options": {
						"raw": {
							"language": "json"
						}
					}
				},
				"url": {
					"raw": "{{route}}:{{port}}/api/users",
					"host": [
						"{{route}}"
					],
					"port": "{{port}}",
					"path": [
						"api",
						"users"
					]
				}
			},
			"response": []
		},
		{
			"name": "updateUser ADMIN",
			"request": {
				"auth": {
					"type": "bearer",
					"bearer": [
						{
							"key": "token",
							"value": "{{tokenAdmin}}",
							"type": "string"
						}
					]
				},
				"method": "PUT",
				"header": [],
				"body": {
					"mode": "raw",
					"raw": "{\r\n    \"user_uuid\": \"eae5c6c3-c5e6-47a5-9978-6c6b428ec96b\",\r\n    \"username\": \"salamadmin\"\r\n}",
					"options": {
						"raw": {
							"language": "json"
						}
					}
				},
				"url": {
					"raw": "{{route}}:{{port}}/api/admin/users/:user_uuid",
					"host": [
						"{{route}}"
					],
					"port": "{{port}}",
					"path": [
						"api",
						"admin",
						"users",
						":user_uuid"
					],
					"variable": [
						{
							"key": "user_uuid",
							"value": "eae5c6c3-c5e6-47a5-9978-6c6b428ec96a"
						}
					]
				}
			},
			"response": []
		},
		{
			"name": "getUserS",
			"request": {
				"auth": {
					"type": "bearer",
					"bearer": [
						{
							"key": "token",
							"value": "{{tokenAdmin}}",
							"type": "string"
						}
					]
				},
				"method": "GET",
				"header": [],
				"url": {
					"raw": "{{route}}:{{port}}/api/users?tipo=casero",
					"host": [
						"{{route}}"
					],
					"port": "{{port}}",
					"path": [
						"api",
						"users"
					],
					"query": [
						{
							"key": "tipo",
							"value": "inquilino",
							"disabled": true
						},
						{
							"key": "tipo",
							"value": "casero"
						}
					]
				}
			},
			"response": []
		},
		{
			"name": "getSelfData",
			"request": {
				"auth": {
					"type": "bearer",
					"bearer": [
						{
							"key": "token",
							"value": "{{tokenCasero1}}",
							"type": "string"
						}
					]
				},
				"method": "GET",
				"header": [],
				"url": {
					"raw": "{{route}}:{{port}}/api/users/:username",
					"host": [
						"{{route}}"
					],
					"port": "{{port}}",
					"path": [
						"api",
						"users",
						":username"
					],
					"variable": [
						{
							"key": "username",
							"value": "pimpollo"
						}
					]
				}
			},
			"response": []
		},
		{
			"name": "updateUser SELF",
			"request": {
				"auth": {
					"type": "bearer",
					"bearer": [
						{
							"key": "token",
							"value": "{{tokenCasero}}",
							"type": "string"
						}
					]
				},
				"method": "PUT",
				"header": [],
				"body": {
					"mode": "raw",
					"raw": "{\r\n    \"username\": \"salamadmin\"\r\n}",
					"options": {
						"raw": {
							"language": "json"
						}
					}
				},
				"url": {
					"raw": "{{route}}:{{port}}/api/users/:username",
					"host": [
						"{{route}}"
					],
					"port": "{{port}}",
					"path": [
						"api",
						"users",
						":username"
					],
					"variable": [
						{
							"key": "username",
							"value": "salamadminaa"
						}
					]
				}
			},
			"response": []
		}
	]
}