{
	"info": {
		"_postman_id": "f74bd60a-a625-4893-9430-828ff4dd3651",
		"name": "Enpoint properties",
		"schema": "https://schema.getpostman.com/json/collection/v2.1.0/collection.json"
	},
	"item": [
		{
			"name": "getAllProperties [ADMIN]",
			"request": {
				"auth": {
					"type": "bearer",
					"bearer": [
						{
							"key": "token",
							"value": "{{tokenAdmin}}",
							"type": "string"
						}
					]
				},
				"method": "GET",
				"header": [],
				"url": {
					"raw": "{{route}}:{{port}}/api/properties",
					"host": [
						"{{route}}"
					],
					"port": "{{port}}",
					"path": [
						"api",
						"properties"
					]
				}
			},
			"response": []
		},
		{
			"name": "getProperty",
			"request": {
				"auth": {
					"type": "bearer",
					"bearer": [
						{
							"key": "token",
							"value": "{{tokenCasero}}",
							"type": "string"
						}
					]
				},
				"method": "GET",
				"header": [],
				"url": {
					"raw": "{{route}}:{{port}}/api/properties/:inmueble_uuid",
					"host": [
						"{{route}}"
					],
					"port": "{{port}}",
					"path": [
						"api",
						"properties",
						":inmueble_uuid"
					],
					"variable": [
						{
							"key": "inmueble_uuid",
							"value": "2df2c78b-d5a8-45e7-a5bc-2894dd17339d"
						}
					]
				}
			},
			"response": []
		},
		{
			"name": "getUserProperties",
			"request": {
				"auth": {
					"type": "bearer",
					"bearer": [
						{
							"key": "token",
							"value": "{{tokenCasero1}}",
							"type": "string"
						}
					]
				},
				"method": "GET",
				"header": [],
				"url": {
					"raw": "{{route}}:{{port}}/api/user/:username/properties/",
					"host": [
						"{{route}}"
					],
					"port": "{{port}}",
					"path": [
						"api",
						"user",
						":username",
						"properties",
						""
					],
					"variable": [
						{
							"key": "username",
							"value": "salamadmin"
						}
					]
				}
			},
			"response": []
		},
		{
			"name": "createNewProperty2d",
			"request": {
				"auth": {
					"type": "bearer",
					"bearer": [
						{
							"key": "token",
							"value": "{{tokenCasero1}}",
							"type": "string"
						}
					]
				},
				"method": "POST",
				"header": [],
				"body": {
					"mode": "raw",
					"raw": "{\r\n    \"disponibilidad\": true,\r\n    \"x\": \"0.000000\",\r\n    \"y\": \"0.000000\",\r\n    \"metros_2\": 100,\r\n    \"calle\": \"calle ooooo\",\r\n    \"numero\": \"10\",\r\n    \"piso\": \"ALTO\",\r\n    \"ciudad\": \"z\",\r\n    \"provincia\": \"z\",\r\n    \"comunidad\": \"z\",\r\n    \"pais\": \"Qatar\",\r\n    \"cp\": \"11111\",\r\n    \"banos\": 0,\r\n    \"habitaciones\": 0,\r\n    \"amueblado\": false,\r\n    \"calefaccion\": false,\r\n    \"aire_acondicionado\": false,\r\n    \"jardin\": false,\r\n    \"terraza\": false,\r\n    \"ascensor\": false,\r\n    \"piscina\": false\r\n}",
					"options": {
						"raw": {
							"language": "json"
						}
					}
				},
				"url": {
					"raw": "{{route}}:{{port}}/api/properties/",
					"host": [
						"{{route}}"
					],
					"port": "{{port}}",
					"path": [
						"api",
						"properties",
						""
					],
					"query": [
						{
							"key": "direccion",
							"value": "Calle Zamora 90",
							"description": "campo correspondiente a la dirección",
							"disabled": true
						},
						{
							"key": "metros_2",
							"value": "90",
							"description": "campo correspondiente a los m2",
							"disabled": true
						},
						{
							"key": null,
							"value": null,
							"disabled": true
						}
					]
				}
			},
			"response": []
		},
		{
			"name": "modifyProperty2d",
			"request": {
				"auth": {
					"type": "bearer",
					"bearer": [
						{
							"key": "token",
							"value": "{{tokenCasero1}}",
							"type": "string"
						}
					]
				},
				"method": "PUT",
				"header": [
					{
						"key": ":inmueble_uuid",
						"value": "",
						"type": "text",
						"disabled": true
					}
				],
				"body": {
					"mode": "formdata",
					"formdata": [
						{
							"key": "imgsprop",
							"type": "file",
							"src": "/C:/Users/vane/Downloads/IMG-20201130-WA0009.jpg"
						},
						{
							"key": "calle",
							"value": "pppppppppppppppppppppppp",
							"type": "text"
						}
					]
				},
				"url": {
					"raw": "{{route}}:{{port}}/api/properties/:inmueble_uuid",
					"host": [
						"{{route}}"
					],
					"port": "{{port}}",
					"path": [
						"api",
						"properties",
						":inmueble_uuid"
					],
					"query": [
						{
							"key": "direccion",
							"value": "Calle Zamora 90",
							"description": "campo correspondiente a la dirección",
							"disabled": true
						},
						{
							"key": "metros_2",
							"value": "90",
							"description": "campo correspondiente a los m2",
							"disabled": true
						},
						{
							"key": null,
							"value": null,
							"disabled": true
						}
					],
					"variable": [
						{
							"key": "inmueble_uuid",
							"value": "8c787664-df0a-44af-909c-cc04e99cdd7e"
						}
					]
				}
			},
			"response": []
		},
		{
			"name": "deleteProperty2d",
			"request": {
				"auth": {
					"type": "bearer",
					"bearer": [
						{
							"key": "token",
							"value": "{{tokenAdmin}}",
							"type": "string"
						}
					]
				},
				"method": "DELETE",
				"header": [],
				"body": {
					"mode": "raw",
					"raw": "{\r\n    \"inmueble_uuid\": \"49f7bf3b-78ee-4d0e-9880-8e971e27ba6a\"\r\n}",
					"options": {
						"raw": {
							"language": "json"
						}
					}
				},
				"url": {
					"raw": "{{route}}:{{port}}/api/properties/",
					"host": [
						"{{route}}"
					],
					"port": "{{port}}",
					"path": [
						"api",
						"properties",
						""
					],
					"query": [
						{
							"key": "direccion",
							"value": "Calle Zamora 90",
							"description": "campo correspondiente a la dirección",
							"disabled": true
						},
						{
							"key": "metros_2",
							"value": "90",
							"description": "campo correspondiente a los m2",
							"disabled": true
						},
						{
							"key": null,
							"value": null,
							"disabled": true
						}
					]
				}
			},
			"response": []
		},
		{
			"name": "createNewProperty2d Multer",
			"request": {
				"auth": {
					"type": "bearer",
					"bearer": [
						{
							"key": "token",
							"value": "{{tokenCasero1}}",
							"type": "string"
						}
					]
				},
				"method": "POST",
				"header": [],
				"body": {
					"mode": "formdata",
					"formdata": [
						{
							"key": "disponibilidad",
							"value": "true",
							"type": "text"
						},
						{
							"key": "calle",
							"value": "no",
							"type": "text"
						},
						{
							"key": "ciudad",
							"value": "tampoco",
							"type": "text"
						},
						{
							"key": "provincia",
							"value": "menos",
							"type": "text"
						},
						{
							"key": "pais",
							"value": "haha",
							"type": "text"
						},
						{
							"key": "cp",
							"value": "12345",
							"type": "text"
						},
						{
							"key": "imgsprop",
							"type": "file",
							"src": [
								"/C:/Users/vane/Downloads/minusvalidos.png",
								"/C:/Users/vane/Downloads/I00007BWwf0Ph6f4.jpg"
							]
						},
						{
							"key": "comunidad",
							"value": "",
							"type": "text",
							"disabled": true
						},
						{
							"key": "metros_2",
							"value": "",
							"type": "text",
							"disabled": true
						}
					]
				},
				"url": {
					"raw": "{{route}}:{{port}}/api/properties/",
					"host": [
						"{{route}}"
					],
					"port": "{{port}}",
					"path": [
						"api",
						"properties",
						""
					],
					"query": [
						{
							"key": "direccion",
							"value": "Calle Zamora 90",
							"description": "campo correspondiente a la dirección",
							"disabled": true
						},
						{
							"key": "metros_2",
							"value": "90",
							"description": "campo correspondiente a los m2",
							"disabled": true
						},
						{
							"key": null,
							"value": null,
							"disabled": true
						}
					]
				}
			},
			"response": []
		}
	]
}